\relax 
\providecommand\hyper@newdestlabel[2]{}
\@writefile{toc}{\contentsline {chapter}{\numberline {2}Introducci\IeC {\'o}n Espec\IeC {\'\i }fica}{5}{chapter.27}}
\@writefile{lof}{\addvspace {10\p@ }}
\@writefile{lot}{\addvspace {10\p@ }}
\newlabel{Chapter2}{{2}{5}{Introducción Específica}{chapter.27}{}}
\@writefile{toc}{\contentsline {section}{\numberline {2.1}Resumen del trabajo desarrollado}{5}{section.28}}
\@writefile{toc}{\contentsline {subsection}{\numberline {2.1.1}Esquema general}{5}{subsection.29}}
\@writefile{lof}{\contentsline {figure}{\numberline {2.1}{\ignorespaces Esquema general de funcionamiento del proyecto.\relax }}{5}{figure.caption.30}}
\providecommand*\caption@xref[2]{\@setref\relax\@undefined{#1}}
\newlabel{fig:disenoGeneral}{{2.1}{5}{Esquema general de funcionamiento del proyecto.\relax }{figure.caption.30}{}}
\@writefile{toc}{\contentsline {subsubsection}{IDE para dise\IeC {\~n}o de interfaz}{5}{section*.31}}
\@writefile{toc}{\contentsline {subsubsection}{Dise\IeC {\~n}o de Aplicaci\IeC {\'o}n}{6}{section*.33}}
\@writefile{toc}{\contentsline {subsubsection}{Componentes Hardware}{6}{section*.37}}
\@writefile{toc}{\contentsline {subsection}{\numberline {2.1.2}Esquema de software}{6}{subsection.38}}
\@writefile{toc}{\contentsline {subsubsection}{Bibliotecas de componentes visuales}{7}{section*.39}}
\@writefile{lof}{\contentsline {figure}{\numberline {2.2}{\ignorespaces Capas del dise\IeC {\~n}o de biblioteca de componentes graficos en C.\relax }}{7}{figure.caption.40}}
\newlabel{fig:capasLibreriaC}{{2.2}{7}{Capas del diseño de biblioteca de componentes graficos en C.\relax }{figure.caption.40}{}}
\@writefile{toc}{\contentsline {subsubsection}{Conversor de pantallas}{8}{section*.41}}
\@writefile{lof}{\contentsline {figure}{\numberline {2.3}{\ignorespaces Flujo para la conversion de pantallas.\relax }}{8}{figure.caption.42}}
\newlabel{fig:capasConversor}{{2.3}{8}{Flujo para la conversion de pantallas.\relax }{figure.caption.42}{}}
\@writefile{toc}{\contentsline {section}{\numberline {2.2}Herramientas utilizadas}{9}{section.43}}
\@writefile{toc}{\contentsline {subsection}{\numberline {2.2.1}HDMI y Display Link}{9}{subsection.44}}
\@writefile{toc}{\contentsline {subsubsection}{HDMI}{9}{section*.45}}
\@writefile{lof}{\contentsline {figure}{\numberline {2.4}{\ignorespaces Conectores HDMI tipo A,C y D.\relax }}{9}{figure.caption.46}}
\newlabel{fig:conectoresHdmi}{{2.4}{9}{Conectores HDMI tipo A,C y D.\relax }{figure.caption.46}{}}
\@writefile{toc}{\contentsline {subsubsection}{Display Link}{10}{section*.47}}
\@writefile{lof}{\contentsline {figure}{\numberline {2.5}{\ignorespaces Uso de tecnologia de Display Link.\citep {DISPLAYL}\relax }}{10}{figure.caption.48}}
\newlabel{fig:displayLink}{{2.5}{10}{Uso de tecnologia de Display Link.\citep {DISPLAYL}\relax }{figure.caption.48}{}}
\newlabel{sec:infoLibdlo}{{2.2.1}{10}{Display Link}{figure.caption.48}{}}
\@writefile{toc}{\contentsline {subsection}{\numberline {2.2.2}USB-OTG}{10}{subsection.50}}
\@writefile{lof}{\contentsline {figure}{\numberline {2.6}{\ignorespaces Capas del dise\IeC {\~n}o de biblioteca libdlo de Display Link open source.\citep {DISPLAYL}\relax }}{11}{figure.caption.49}}
\newlabel{fig:libdlo}{{2.6}{11}{Capas del diseño de biblioteca libdlo de Display Link open source.\citep {DISPLAYL}\relax }{figure.caption.49}{}}
\@writefile{lof}{\contentsline {figure}{\numberline {2.7}{\ignorespaces USB host.\citep {USBHOSTCESE}\relax }}{11}{figure.caption.51}}
\newlabel{fig:usbhost}{{2.7}{11}{USB host.\citep {USBHOSTCESE}\relax }{figure.caption.51}{}}
\@writefile{toc}{\contentsline {subsection}{\numberline {2.2.3}Proyecto CIAA}{11}{subsection.52}}
\@writefile{toc}{\contentsline {subsubsection}{EDU-CIAA}{12}{section*.53}}
\@writefile{lof}{\contentsline {figure}{\numberline {2.8}{\ignorespaces Tarjeta de desarrollo EDU-CIAA.\relax }}{12}{figure.caption.54}}
\newlabel{fig:eduCiaa}{{2.8}{12}{Tarjeta de desarrollo EDU-CIAA.\relax }{figure.caption.54}{}}
\@writefile{lof}{\contentsline {figure}{\numberline {2.9}{\ignorespaces Diagrama de bloques de EDU-CIAA.\relax }}{13}{figure.caption.55}}
\newlabel{fig:diagramaEduciaa}{{2.9}{13}{Diagrama de bloques de EDU-CIAA.\relax }{figure.caption.55}{}}
\@writefile{toc}{\contentsline {subsection}{\numberline {2.2.4}IDE para dise\IeC {\~n}o de interfaces gr\IeC {\'a}ficas de usuario}{13}{subsection.56}}
\@writefile{lof}{\contentsline {figure}{\numberline {2.10}{\ignorespaces IDE Qt Creator. Ejemplo de dise\IeC {\~n}o de GUI.\relax }}{13}{figure.caption.57}}
\newlabel{fig:desarrolloQt}{{2.10}{13}{IDE Qt Creator. Ejemplo de diseño de GUI.\relax }{figure.caption.57}{}}
\@setckpt{Chapters/Chapter2}{
\setcounter{page}{14}
\setcounter{equation}{0}
\setcounter{enumi}{3}
\setcounter{enumii}{3}
\setcounter{enumiii}{0}
\setcounter{enumiv}{0}
\setcounter{footnote}{4}
\setcounter{mpfootnote}{0}
\setcounter{part}{0}
\setcounter{chapter}{2}
\setcounter{section}{2}
\setcounter{subsection}{4}
\setcounter{subsubsection}{0}
\setcounter{paragraph}{0}
\setcounter{subparagraph}{0}
\setcounter{figure}{10}
\setcounter{table}{0}
\setcounter{LT@tables}{0}
\setcounter{LT@chunks}{0}
\setcounter{ContinuedFloat}{0}
\setcounter{tabx@nest}{0}
\setcounter{listtotal}{0}
\setcounter{listcount}{0}
\setcounter{liststart}{0}
\setcounter{liststop}{0}
\setcounter{citecount}{0}
\setcounter{citetotal}{0}
\setcounter{multicitecount}{0}
\setcounter{multicitetotal}{0}
\setcounter{instcount}{17}
\setcounter{maxnames}{3}
\setcounter{minnames}{1}
\setcounter{maxitems}{3}
\setcounter{minitems}{1}
\setcounter{citecounter}{0}
\setcounter{savedcitecounter}{0}
\setcounter{uniquelist}{0}
\setcounter{uniquename}{0}
\setcounter{refsection}{0}
\setcounter{refsegment}{0}
\setcounter{maxextratitle}{0}
\setcounter{maxextratitleyear}{0}
\setcounter{maxextrayear}{0}
\setcounter{maxextraalpha}{0}
\setcounter{abbrvpenalty}{50}
\setcounter{highnamepenalty}{50}
\setcounter{lownamepenalty}{25}
\setcounter{maxparens}{3}
\setcounter{parenlevel}{0}
\setcounter{mincomprange}{10}
\setcounter{maxcomprange}{100000}
\setcounter{mincompwidth}{1}
\setcounter{afterword}{0}
\setcounter{savedafterword}{0}
\setcounter{annotator}{0}
\setcounter{savedannotator}{0}
\setcounter{author}{0}
\setcounter{savedauthor}{0}
\setcounter{bookauthor}{0}
\setcounter{savedbookauthor}{0}
\setcounter{commentator}{0}
\setcounter{savedcommentator}{0}
\setcounter{editor}{0}
\setcounter{savededitor}{0}
\setcounter{editora}{0}
\setcounter{savededitora}{0}
\setcounter{editorb}{0}
\setcounter{savededitorb}{0}
\setcounter{editorc}{0}
\setcounter{savededitorc}{0}
\setcounter{foreword}{0}
\setcounter{savedforeword}{0}
\setcounter{holder}{0}
\setcounter{savedholder}{0}
\setcounter{introduction}{0}
\setcounter{savedintroduction}{0}
\setcounter{namea}{0}
\setcounter{savednamea}{0}
\setcounter{nameb}{0}
\setcounter{savednameb}{0}
\setcounter{namec}{0}
\setcounter{savednamec}{0}
\setcounter{translator}{0}
\setcounter{savedtranslator}{0}
\setcounter{shortauthor}{0}
\setcounter{savedshortauthor}{0}
\setcounter{shorteditor}{0}
\setcounter{savedshorteditor}{0}
\setcounter{labelname}{0}
\setcounter{savedlabelname}{0}
\setcounter{institution}{0}
\setcounter{savedinstitution}{0}
\setcounter{lista}{0}
\setcounter{savedlista}{0}
\setcounter{listb}{0}
\setcounter{savedlistb}{0}
\setcounter{listc}{0}
\setcounter{savedlistc}{0}
\setcounter{listd}{0}
\setcounter{savedlistd}{0}
\setcounter{liste}{0}
\setcounter{savedliste}{0}
\setcounter{listf}{0}
\setcounter{savedlistf}{0}
\setcounter{location}{0}
\setcounter{savedlocation}{0}
\setcounter{organization}{0}
\setcounter{savedorganization}{0}
\setcounter{origlocation}{0}
\setcounter{savedoriglocation}{0}
\setcounter{origpublisher}{0}
\setcounter{savedorigpublisher}{0}
\setcounter{publisher}{0}
\setcounter{savedpublisher}{0}
\setcounter{language}{0}
\setcounter{savedlanguage}{0}
\setcounter{pageref}{0}
\setcounter{savedpageref}{0}
\setcounter{textcitecount}{0}
\setcounter{textcitetotal}{0}
\setcounter{textcitemaxnames}{0}
\setcounter{biburlnumpenalty}{0}
\setcounter{biburlucpenalty}{0}
\setcounter{biburllcpenalty}{0}
\setcounter{smartand}{1}
\setcounter{bbx:relatedcount}{0}
\setcounter{bbx:relatedtotal}{0}
\setcounter{Item}{12}
\setcounter{Hfootnote}{9}
\setcounter{bookmark@seq@number}{23}
\setcounter{subfigure}{0}
\setcounter{subtable}{0}
\setcounter{lstnumber}{1}
\setcounter{section@level}{2}
\setcounter{lstlisting}{0}
}
