\relax 
\providecommand\hyper@newdestlabel[2]{}
\@writefile{toc}{\contentsline {chapter}{\numberline {4}Ensayos y Resultados}{35}{chapter.105}}
\@writefile{lof}{\addvspace {10\p@ }}
\@writefile{lot}{\addvspace {10\p@ }}
\newlabel{Chapter4}{{4}{35}{Ensayos y Resultados}{chapter.105}{}}
\@writefile{toc}{\contentsline {section}{\numberline {4.1}Ensayos de formas b\IeC {\'a}sicas}{35}{section.106}}
\@writefile{toc}{\contentsline {subsubsection}{Detecci\IeC {\'o}n y pantalla completa}{35}{section*.107}}
\@writefile{toc}{\contentsline {subsubsection}{Barras horizontales y verticales}{35}{section*.109}}
\@writefile{lof}{\contentsline {figure}{\numberline {4.1}{\ignorespaces Pintado de pantalla completa con diferentes colores.\relax }}{36}{figure.caption.108}}
\newlabel{fig:pantallas}{{4.1}{36}{Pintado de pantalla completa con diferentes colores.\relax }{figure.caption.108}{}}
\@writefile{lof}{\contentsline {figure}{\numberline {4.2}{\ignorespaces Pintado de barras horizontales y verticales, con diferentes colores.\relax }}{36}{figure.caption.110}}
\newlabel{fig:verHorBarras}{{4.2}{36}{Pintado de barras horizontales y verticales, con diferentes colores.\relax }{figure.caption.110}{}}
\@writefile{toc}{\contentsline {subsubsection}{P\IeC {\'\i }xeles}{36}{section*.111}}
\@writefile{lof}{\contentsline {figure}{\numberline {4.3}{\ignorespaces Pintado de p\IeC {\'\i }xeles aleatorios de diferentes colores.\relax }}{37}{figure.caption.112}}
\newlabel{fig:puntos}{{4.3}{37}{Pintado de píxeles aleatorios de diferentes colores.\relax }{figure.caption.112}{}}
\@writefile{toc}{\contentsline {subsubsection}{L\IeC {\'\i }neas}{37}{section*.113}}
\@writefile{lof}{\contentsline {figure}{\numberline {4.4}{\ignorespaces Pintado de l\IeC {\'\i }neas aleatorias.\relax }}{37}{figure.caption.114}}
\newlabel{fig:lineas}{{4.4}{37}{Pintado de líneas aleatorias.\relax }{figure.caption.114}{}}
\@writefile{toc}{\contentsline {subsubsection}{C\IeC {\'\i }rculos}{37}{section*.115}}
\@writefile{lof}{\contentsline {figure}{\numberline {4.5}{\ignorespaces Pintado de circulos aleatorias.\relax }}{38}{figure.caption.116}}
\newlabel{fig:circulos}{{4.5}{38}{Pintado de circulos aleatorias.\relax }{figure.caption.116}{}}
\@writefile{toc}{\contentsline {subsubsection}{Rect\IeC {\'a}ngulos y copia de bloques de pantalla}{38}{section*.117}}
\@writefile{lof}{\contentsline {figure}{\numberline {4.6}{\ignorespaces Pintado y copia de rectangulos aleatorias.\relax }}{38}{figure.caption.118}}
\newlabel{fig:rectangulos}{{4.6}{38}{Pintado y copia de rectangulos aleatorias.\relax }{figure.caption.118}{}}
\@writefile{toc}{\contentsline {subsubsection}{Fuentes tipogr\IeC {\'a}ficas}{38}{section*.119}}
\@writefile{lof}{\contentsline {figure}{\numberline {4.7}{\ignorespaces Cadenas de texto aleatorias.\relax }}{39}{figure.caption.120}}
\newlabel{fig:testStrings}{{4.7}{39}{Cadenas de texto aleatorias.\relax }{figure.caption.120}{}}
\@writefile{toc}{\contentsline {section}{\numberline {4.2}Ensayos de componentes de ventana}{39}{section.121}}
\@writefile{toc}{\contentsline {subsubsection}{Etiqueta de texto (label)}{39}{section*.122}}
\@writefile{lof}{\contentsline {figure}{\numberline {4.8}{\ignorespaces Componentes: Label, TextBox y Button.\relax }}{39}{figure.caption.123}}
\newlabel{fig:LabelTextboxButton}{{4.8}{39}{Componentes: Label, TextBox y Button.\relax }{figure.caption.123}{}}
\@writefile{toc}{\contentsline {subsubsection}{Caja de texto (TextBox)}{39}{section*.124}}
\@writefile{toc}{\contentsline {subsubsection}{Bot\IeC {\'o}n (button)}{40}{section*.125}}
\@writefile{toc}{\contentsline {subsubsection}{Indicador de estado (status indicator)}{40}{section*.126}}
\@writefile{lof}{\contentsline {figure}{\numberline {4.9}{\ignorespaces Componente indicador.\relax }}{40}{figure.caption.127}}
\newlabel{fig:indicador}{{4.9}{40}{Componente indicador.\relax }{figure.caption.127}{}}
\@writefile{toc}{\contentsline {subsubsection}{Barra de progreso (progress bar)}{40}{section*.128}}
\@writefile{lof}{\contentsline {figure}{\numberline {4.10}{\ignorespaces Componente de barra de progreso.\relax }}{40}{figure.caption.129}}
\newlabel{fig:progressBar}{{4.10}{40}{Componente de barra de progreso.\relax }{figure.caption.129}{}}
\@writefile{toc}{\contentsline {subsubsection}{Terminal}{40}{section*.130}}
\@writefile{toc}{\contentsline {subsubsection}{Gr\IeC {\'a}fica X vs Y}{40}{section*.132}}
\@writefile{lof}{\contentsline {figure}{\numberline {4.11}{\ignorespaces Componente terminal.\relax }}{41}{figure.caption.131}}
\newlabel{fig:terminal}{{4.11}{41}{Componente terminal.\relax }{figure.caption.131}{}}
\@writefile{lof}{\contentsline {figure}{\numberline {4.12}{\ignorespaces Componente de graficos X vs Y.\relax }}{41}{figure.caption.133}}
\newlabel{fig:graficosXY}{{4.12}{41}{Componente de graficos X vs Y.\relax }{figure.caption.133}{}}
\@writefile{toc}{\contentsline {section}{\numberline {4.3}Ensayos de generaci\IeC {\'o}n de interfaz}{41}{section.134}}
\@writefile{toc}{\contentsline {subsubsection}{Dise\IeC {\~n}o de pantalla}{41}{section*.135}}
\@writefile{lof}{\contentsline {figure}{\numberline {4.13}{\ignorespaces Ventana dise\IeC {\~n}ada en Qt Creator.\relax }}{42}{figure.caption.136}}
\newlabel{fig:disenoVentQt}{{4.13}{42}{Ventana diseñada en Qt Creator.\relax }{figure.caption.136}{}}
\@writefile{lof}{\contentsline {figure}{\numberline {4.14}{\ignorespaces Ventana con todos los componentes disponible visualizada por la EDU-CIAA.\relax }}{42}{figure.caption.137}}
\newlabel{fig:ventanaP}{{4.14}{42}{Ventana con todos los componentes disponible visualizada por la EDU-CIAA.\relax }{figure.caption.137}{}}
\@setckpt{Chapters/Chapter4}{
\setcounter{page}{43}
\setcounter{equation}{0}
\setcounter{enumi}{4}
\setcounter{enumii}{3}
\setcounter{enumiii}{0}
\setcounter{enumiv}{0}
\setcounter{footnote}{0}
\setcounter{mpfootnote}{0}
\setcounter{part}{0}
\setcounter{chapter}{4}
\setcounter{section}{3}
\setcounter{subsection}{0}
\setcounter{subsubsection}{0}
\setcounter{paragraph}{0}
\setcounter{subparagraph}{0}
\setcounter{figure}{14}
\setcounter{table}{0}
\setcounter{LT@tables}{0}
\setcounter{LT@chunks}{0}
\setcounter{ContinuedFloat}{0}
\setcounter{tabx@nest}{0}
\setcounter{listtotal}{0}
\setcounter{listcount}{0}
\setcounter{liststart}{0}
\setcounter{liststop}{0}
\setcounter{citecount}{0}
\setcounter{citetotal}{0}
\setcounter{multicitecount}{0}
\setcounter{multicitetotal}{0}
\setcounter{instcount}{18}
\setcounter{maxnames}{3}
\setcounter{minnames}{1}
\setcounter{maxitems}{3}
\setcounter{minitems}{1}
\setcounter{citecounter}{0}
\setcounter{savedcitecounter}{0}
\setcounter{uniquelist}{0}
\setcounter{uniquename}{0}
\setcounter{refsection}{0}
\setcounter{refsegment}{0}
\setcounter{maxextratitle}{0}
\setcounter{maxextratitleyear}{0}
\setcounter{maxextrayear}{0}
\setcounter{maxextraalpha}{0}
\setcounter{abbrvpenalty}{50}
\setcounter{highnamepenalty}{50}
\setcounter{lownamepenalty}{25}
\setcounter{maxparens}{3}
\setcounter{parenlevel}{0}
\setcounter{mincomprange}{10}
\setcounter{maxcomprange}{100000}
\setcounter{mincompwidth}{1}
\setcounter{afterword}{0}
\setcounter{savedafterword}{0}
\setcounter{annotator}{0}
\setcounter{savedannotator}{0}
\setcounter{author}{0}
\setcounter{savedauthor}{0}
\setcounter{bookauthor}{0}
\setcounter{savedbookauthor}{0}
\setcounter{commentator}{0}
\setcounter{savedcommentator}{0}
\setcounter{editor}{0}
\setcounter{savededitor}{0}
\setcounter{editora}{0}
\setcounter{savededitora}{0}
\setcounter{editorb}{0}
\setcounter{savededitorb}{0}
\setcounter{editorc}{0}
\setcounter{savededitorc}{0}
\setcounter{foreword}{0}
\setcounter{savedforeword}{0}
\setcounter{holder}{0}
\setcounter{savedholder}{0}
\setcounter{introduction}{0}
\setcounter{savedintroduction}{0}
\setcounter{namea}{0}
\setcounter{savednamea}{0}
\setcounter{nameb}{0}
\setcounter{savednameb}{0}
\setcounter{namec}{0}
\setcounter{savednamec}{0}
\setcounter{translator}{0}
\setcounter{savedtranslator}{0}
\setcounter{shortauthor}{0}
\setcounter{savedshortauthor}{0}
\setcounter{shorteditor}{0}
\setcounter{savedshorteditor}{0}
\setcounter{labelname}{0}
\setcounter{savedlabelname}{0}
\setcounter{institution}{0}
\setcounter{savedinstitution}{0}
\setcounter{lista}{0}
\setcounter{savedlista}{0}
\setcounter{listb}{0}
\setcounter{savedlistb}{0}
\setcounter{listc}{0}
\setcounter{savedlistc}{0}
\setcounter{listd}{0}
\setcounter{savedlistd}{0}
\setcounter{liste}{0}
\setcounter{savedliste}{0}
\setcounter{listf}{0}
\setcounter{savedlistf}{0}
\setcounter{location}{0}
\setcounter{savedlocation}{0}
\setcounter{organization}{0}
\setcounter{savedorganization}{0}
\setcounter{origlocation}{0}
\setcounter{savedoriglocation}{0}
\setcounter{origpublisher}{0}
\setcounter{savedorigpublisher}{0}
\setcounter{publisher}{0}
\setcounter{savedpublisher}{0}
\setcounter{language}{0}
\setcounter{savedlanguage}{0}
\setcounter{pageref}{0}
\setcounter{savedpageref}{0}
\setcounter{textcitecount}{0}
\setcounter{textcitetotal}{0}
\setcounter{textcitemaxnames}{0}
\setcounter{biburlnumpenalty}{0}
\setcounter{biburlucpenalty}{0}
\setcounter{biburllcpenalty}{0}
\setcounter{smartand}{1}
\setcounter{bbx:relatedcount}{0}
\setcounter{bbx:relatedtotal}{0}
\setcounter{Item}{25}
\setcounter{Hfootnote}{9}
\setcounter{bookmark@seq@number}{65}
\setcounter{subfigure}{0}
\setcounter{subtable}{0}
\setcounter{lstnumber}{1}
\setcounter{section@level}{3}
\setcounter{lstlisting}{0}
}
