\relax 
\providecommand\hyper@newdestlabel[2]{}
\@writefile{toc}{\contentsline {chapter}{\numberline {3}Dise\IeC {\~n}o e Implementaci\IeC {\'o}n}{15}{chapter.58}}
\@writefile{lof}{\addvspace {10\p@ }}
\@writefile{lot}{\addvspace {10\p@ }}
\newlabel{Chapter3}{{3}{15}{Diseño e Implementación}{chapter.58}{}}
\@writefile{toc}{\contentsline {section}{\numberline {3.1}Planificacion de tareas}{15}{section.59}}
\@writefile{lof}{\contentsline {figure}{\numberline {3.1}{\ignorespaces Diagrama de Activity On Node. Planificaci\IeC {\'o}n de tareas del proyecto.\relax }}{15}{figure.caption.60}}
\newlabel{fig:planificacion}{{3.1}{15}{Diagrama de Activity On Node. Planificación de tareas del proyecto.\relax }{figure.caption.60}{}}
\@writefile{toc}{\contentsline {section}{\numberline {3.2}USB-HDMI}{16}{section.61}}
\@writefile{lof}{\contentsline {figure}{\numberline {3.2}{\ignorespaces Hardware usado en el proyecto.\relax }}{17}{figure.caption.62}}
\newlabel{fig:componentesNecesarios}{{3.2}{17}{Hardware usado en el proyecto.\relax }{figure.caption.62}{}}
\@writefile{toc}{\contentsline {section}{\numberline {3.3}Implementacion de biblioteca libdlo en EDU-CIAA}{17}{section.63}}
\newlabel{sec:libreriaImpllibdlo}{{3.3}{17}{Implementacion de biblioteca libdlo en EDU-CIAA}{section.63}{}}
\@writefile{lof}{\contentsline {figure}{\numberline {3.3}{\ignorespaces Capas de nxpUSBlib.\relax }}{18}{figure.caption.65}}
\newlabel{fig:nxpusblib}{{3.3}{18}{Capas de nxpUSBlib.\relax }{figure.caption.65}{}}
\@writefile{lof}{\contentsline {figure}{\numberline {3.4}{\ignorespaces Capas que se integraron en biblioteca gr\IeC {\'a}fica.\relax }}{18}{figure.caption.67}}
\newlabel{fig:migracionDriver}{{3.4}{18}{Capas que se integraron en biblioteca gráfica.\relax }{figure.caption.67}{}}
\@writefile{toc}{\contentsline {section}{\numberline {3.4}Desarrollo de formas b\IeC {\'a}sicas}{19}{section.68}}
\newlabel{sec:libreriaFormasBasicas}{{3.4}{19}{Desarrollo de formas básicas}{section.68}{}}
\@writefile{toc}{\contentsline {subsection}{\numberline {3.4.1}Dise\IeC {\~n}o e implementaci\IeC {\'o}n}{19}{subsection.69}}
\@writefile{toc}{\contentsline {subsection}{\numberline {3.4.2}Intrucciones de uso}{20}{subsection.70}}
\@writefile{lof}{\contentsline {figure}{\numberline {3.5}{\ignorespaces Ejes de la pantalla.\relax }}{20}{figure.caption.71}}
\newlabel{fig:ejesPantalla}{{3.5}{20}{Ejes de la pantalla.\relax }{figure.caption.71}{}}
\@writefile{lof}{\contentsline {figure}{\numberline {3.6}{\ignorespaces Diagrama de biblioteca de funciones b\IeC {\'a}sicas.\relax }}{20}{figure.caption.72}}
\newlabel{fig:formBasicas}{{3.6}{20}{Diagrama de biblioteca de funciones básicas.\relax }{figure.caption.72}{}}
\@writefile{toc}{\contentsline {section}{\numberline {3.5}Desarrollo de objetos visuales}{22}{section.73}}
\newlabel{sec:libreriaObjVisual}{{3.5}{22}{Desarrollo de objetos visuales}{section.73}{}}
\@writefile{lof}{\contentsline {figure}{\numberline {3.7}{\ignorespaces GUI Componentes desarrollos de una ventana.\relax }}{23}{figure.caption.74}}
\newlabel{fig:componentesVentana}{{3.7}{23}{GUI Componentes desarrollos de una ventana.\relax }{figure.caption.74}{}}
\@writefile{toc}{\contentsline {subsection}{\numberline {3.5.1}Dise\IeC {\~n}o e implementaci\IeC {\'o}n}{23}{subsection.75}}
\@writefile{toc}{\contentsline {subsection}{\numberline {3.5.2}Instrucciones de uso}{24}{subsection.78}}
\newlabel{sec:usoCompBas}{{3.5.2}{24}{Instrucciones de uso}{subsection.78}{}}
\@writefile{toc}{\contentsline {subsubsection}{paintWindows\_t}{25}{section*.84}}
\@writefile{toc}{\contentsline {subsubsection}{paintLabel\_t}{25}{section*.85}}
\@writefile{toc}{\contentsline {subsubsection}{paintTextBox\_t}{26}{section*.86}}
\@writefile{toc}{\contentsline {subsubsection}{paintButton\_t}{27}{section*.87}}
\@writefile{toc}{\contentsline {subsubsection}{paintProgressBar\_t}{27}{section*.88}}
\@writefile{toc}{\contentsline {subsubsection}{paintTerminal\_t}{28}{section*.89}}
\@writefile{toc}{\contentsline {subsubsection}{paintIndicator\_t}{29}{section*.90}}
\@writefile{toc}{\contentsline {subsubsection}{paintGraphicXY\_t}{30}{section*.91}}
\@writefile{toc}{\contentsline {section}{\numberline {3.6}Conversor de pantallas}{31}{section.92}}
\@writefile{toc}{\contentsline {subsection}{\numberline {3.6.1}Dise\IeC {\~n}o e implementaci\IeC {\'o}n}{31}{subsection.93}}
\@writefile{lof}{\contentsline {figure}{\numberline {3.8}{\ignorespaces Capas del plug-in para convertir pantallas.\relax }}{32}{figure.caption.94}}
\newlabel{fig:capasPlugin}{{3.8}{32}{Capas del plug-in para convertir pantallas.\relax }{figure.caption.94}{}}
\@writefile{toc}{\contentsline {subsection}{\numberline {3.6.2}Instrucciones de uso}{32}{subsection.99}}
\@writefile{toc}{\contentsline {subsubsection}{Plug-in de eclipse}{32}{section*.100}}
\newlabel{sec:pluginEclipsoUso}{{3.6.2}{32}{Plug-in de eclipse}{section*.100}{}}
\@writefile{lof}{\contentsline {figure}{\numberline {3.9}{\ignorespaces Uso de plug-in en eclipse de la opcion \textbf  {Pantalla CIAA -> Importar}.\relax }}{33}{figure.caption.101}}
\newlabel{fig:menuPlugin}{{3.9}{33}{Uso de plug-in en eclipse de la opcion \textbf {Pantalla CIAA -> Importar}.\relax }{figure.caption.101}{}}
\@writefile{lof}{\contentsline {figure}{\numberline {3.10}{\ignorespaces Pantalla de opciones para importar pantalla.\relax }}{33}{figure.caption.102}}
\newlabel{fig:pantallaOpciones}{{3.10}{33}{Pantalla de opciones para importar pantalla.\relax }{figure.caption.102}{}}
\@writefile{toc}{\contentsline {subsubsection}{Pantallas Qt Creator}{33}{section*.103}}
\newlabel{sec:compHologados}{{3.6.2}{33}{Pantallas Qt Creator}{section*.103}{}}
\@writefile{lof}{\contentsline {figure}{\numberline {3.11}{\ignorespaces Ejemplo de sintaxis de nombre para componente en Qt creator.\relax }}{34}{figure.caption.104}}
\newlabel{fig:ejemploEtiquetaQt}{{3.11}{34}{Ejemplo de sintaxis de nombre para componente en Qt creator.\relax }{figure.caption.104}{}}
\@setckpt{Chapters/Chapter3}{
\setcounter{page}{35}
\setcounter{equation}{0}
\setcounter{enumi}{4}
\setcounter{enumii}{3}
\setcounter{enumiii}{0}
\setcounter{enumiv}{0}
\setcounter{footnote}{0}
\setcounter{mpfootnote}{0}
\setcounter{part}{0}
\setcounter{chapter}{3}
\setcounter{section}{6}
\setcounter{subsection}{2}
\setcounter{subsubsection}{0}
\setcounter{paragraph}{0}
\setcounter{subparagraph}{0}
\setcounter{figure}{11}
\setcounter{table}{0}
\setcounter{LT@tables}{0}
\setcounter{LT@chunks}{0}
\setcounter{ContinuedFloat}{0}
\setcounter{tabx@nest}{0}
\setcounter{listtotal}{0}
\setcounter{listcount}{0}
\setcounter{liststart}{0}
\setcounter{liststop}{0}
\setcounter{citecount}{0}
\setcounter{citetotal}{0}
\setcounter{multicitecount}{0}
\setcounter{multicitetotal}{0}
\setcounter{instcount}{18}
\setcounter{maxnames}{3}
\setcounter{minnames}{1}
\setcounter{maxitems}{3}
\setcounter{minitems}{1}
\setcounter{citecounter}{0}
\setcounter{savedcitecounter}{0}
\setcounter{uniquelist}{0}
\setcounter{uniquename}{0}
\setcounter{refsection}{0}
\setcounter{refsegment}{0}
\setcounter{maxextratitle}{0}
\setcounter{maxextratitleyear}{0}
\setcounter{maxextrayear}{0}
\setcounter{maxextraalpha}{0}
\setcounter{abbrvpenalty}{50}
\setcounter{highnamepenalty}{50}
\setcounter{lownamepenalty}{25}
\setcounter{maxparens}{3}
\setcounter{parenlevel}{0}
\setcounter{mincomprange}{10}
\setcounter{maxcomprange}{100000}
\setcounter{mincompwidth}{1}
\setcounter{afterword}{0}
\setcounter{savedafterword}{0}
\setcounter{annotator}{0}
\setcounter{savedannotator}{0}
\setcounter{author}{0}
\setcounter{savedauthor}{0}
\setcounter{bookauthor}{0}
\setcounter{savedbookauthor}{0}
\setcounter{commentator}{0}
\setcounter{savedcommentator}{0}
\setcounter{editor}{0}
\setcounter{savededitor}{0}
\setcounter{editora}{0}
\setcounter{savededitora}{0}
\setcounter{editorb}{0}
\setcounter{savededitorb}{0}
\setcounter{editorc}{0}
\setcounter{savededitorc}{0}
\setcounter{foreword}{0}
\setcounter{savedforeword}{0}
\setcounter{holder}{0}
\setcounter{savedholder}{0}
\setcounter{introduction}{0}
\setcounter{savedintroduction}{0}
\setcounter{namea}{0}
\setcounter{savednamea}{0}
\setcounter{nameb}{0}
\setcounter{savednameb}{0}
\setcounter{namec}{0}
\setcounter{savednamec}{0}
\setcounter{translator}{0}
\setcounter{savedtranslator}{0}
\setcounter{shortauthor}{0}
\setcounter{savedshortauthor}{0}
\setcounter{shorteditor}{0}
\setcounter{savedshorteditor}{0}
\setcounter{labelname}{0}
\setcounter{savedlabelname}{0}
\setcounter{institution}{0}
\setcounter{savedinstitution}{0}
\setcounter{lista}{0}
\setcounter{savedlista}{0}
\setcounter{listb}{0}
\setcounter{savedlistb}{0}
\setcounter{listc}{0}
\setcounter{savedlistc}{0}
\setcounter{listd}{0}
\setcounter{savedlistd}{0}
\setcounter{liste}{0}
\setcounter{savedliste}{0}
\setcounter{listf}{0}
\setcounter{savedlistf}{0}
\setcounter{location}{0}
\setcounter{savedlocation}{0}
\setcounter{organization}{0}
\setcounter{savedorganization}{0}
\setcounter{origlocation}{0}
\setcounter{savedoriglocation}{0}
\setcounter{origpublisher}{0}
\setcounter{savedorigpublisher}{0}
\setcounter{publisher}{0}
\setcounter{savedpublisher}{0}
\setcounter{language}{0}
\setcounter{savedlanguage}{0}
\setcounter{pageref}{0}
\setcounter{savedpageref}{0}
\setcounter{textcitecount}{0}
\setcounter{textcitetotal}{0}
\setcounter{textcitemaxnames}{0}
\setcounter{biburlnumpenalty}{0}
\setcounter{biburlucpenalty}{0}
\setcounter{biburllcpenalty}{0}
\setcounter{smartand}{1}
\setcounter{bbx:relatedcount}{0}
\setcounter{bbx:relatedtotal}{0}
\setcounter{Item}{25}
\setcounter{Hfootnote}{9}
\setcounter{bookmark@seq@number}{46}
\setcounter{subfigure}{0}
\setcounter{subtable}{0}
\setcounter{lstnumber}{1}
\setcounter{section@level}{3}
\setcounter{lstlisting}{0}
}
