\boolfalse {citerequest}\boolfalse {citetracker}\boolfalse {pagetracker}\boolfalse {backtracker}\relax 
\defcounter {refsection}{0}\relax 
\select@language {spanish}
\addvspace {10\p@ }
\addvspace {10\p@ }
\contentsline {figure}{\numberline {2.1}{\ignorespaces Esquema general de funcionamiento del proyecto.\relax }}{5}{figure.caption.30}
\contentsline {figure}{\numberline {2.2}{\ignorespaces Capas del dise\IeC {\~n}o de biblioteca de componentes graficos en C.\relax }}{7}{figure.caption.40}
\contentsline {figure}{\numberline {2.3}{\ignorespaces Flujo para la conversion de pantallas.\relax }}{8}{figure.caption.42}
\contentsline {figure}{\numberline {2.4}{\ignorespaces Conectores HDMI tipo A,C y D.\relax }}{9}{figure.caption.46}
\contentsline {figure}{\numberline {2.5}{\ignorespaces Uso de tecnologia de Display Link.\citep {DISPLAYL}\relax }}{10}{figure.caption.48}
\contentsline {figure}{\numberline {2.6}{\ignorespaces Capas del dise\IeC {\~n}o de biblioteca libdlo de Display Link open source.\citep {DISPLAYL}\relax }}{11}{figure.caption.49}
\contentsline {figure}{\numberline {2.7}{\ignorespaces USB host.\citep {USBHOSTCESE}\relax }}{11}{figure.caption.51}
\contentsline {figure}{\numberline {2.8}{\ignorespaces Tarjeta de desarrollo EDU-CIAA.\relax }}{12}{figure.caption.54}
\contentsline {figure}{\numberline {2.9}{\ignorespaces Diagrama de bloques de EDU-CIAA.\relax }}{13}{figure.caption.55}
\contentsline {figure}{\numberline {2.10}{\ignorespaces IDE Qt Creator. Ejemplo de dise\IeC {\~n}o de GUI.\relax }}{13}{figure.caption.57}
\addvspace {10\p@ }
\contentsline {figure}{\numberline {3.1}{\ignorespaces Diagrama de Activity On Node. Planificaci\IeC {\'o}n de tareas del proyecto.\relax }}{15}{figure.caption.60}
\contentsline {figure}{\numberline {3.2}{\ignorespaces Hardware usado en el proyecto.\relax }}{17}{figure.caption.62}
\contentsline {figure}{\numberline {3.3}{\ignorespaces Capas de nxpUSBlib.\relax }}{18}{figure.caption.65}
\contentsline {figure}{\numberline {3.4}{\ignorespaces Capas que se integraron en biblioteca gr\IeC {\'a}fica.\relax }}{18}{figure.caption.67}
\contentsline {figure}{\numberline {3.5}{\ignorespaces Ejes de la pantalla.\relax }}{20}{figure.caption.71}
\contentsline {figure}{\numberline {3.6}{\ignorespaces Diagrama de biblioteca de funciones b\IeC {\'a}sicas.\relax }}{20}{figure.caption.72}
\contentsline {figure}{\numberline {3.7}{\ignorespaces GUI Componentes desarrollos de una ventana.\relax }}{23}{figure.caption.74}
\contentsline {figure}{\numberline {3.8}{\ignorespaces Capas del plug-in para convertir pantallas.\relax }}{32}{figure.caption.94}
\contentsline {figure}{\numberline {3.9}{\ignorespaces Uso de plug-in en eclipse de la opcion \textbf {Pantalla CIAA -> Importar}.\relax }}{33}{figure.caption.101}
\contentsline {figure}{\numberline {3.10}{\ignorespaces Pantalla de opciones para importar pantalla.\relax }}{33}{figure.caption.102}
\contentsline {figure}{\numberline {3.11}{\ignorespaces Ejemplo de sintaxis de nombre para componente en Qt creator.\relax }}{34}{figure.caption.104}
\addvspace {10\p@ }
\contentsline {figure}{\numberline {4.1}{\ignorespaces Pintado de pantalla completa con diferentes colores.\relax }}{36}{figure.caption.108}
\contentsline {figure}{\numberline {4.2}{\ignorespaces Pintado de barras horizontales y verticales, con diferentes colores.\relax }}{36}{figure.caption.110}
\contentsline {figure}{\numberline {4.3}{\ignorespaces Pintado de p\IeC {\'\i }xeles aleatorios de diferentes colores.\relax }}{37}{figure.caption.112}
\contentsline {figure}{\numberline {4.4}{\ignorespaces Pintado de l\IeC {\'\i }neas aleatorias.\relax }}{37}{figure.caption.114}
\contentsline {figure}{\numberline {4.5}{\ignorespaces Pintado de circulos aleatorias.\relax }}{38}{figure.caption.116}
\contentsline {figure}{\numberline {4.6}{\ignorespaces Pintado y copia de rectangulos aleatorias.\relax }}{38}{figure.caption.118}
\contentsline {figure}{\numberline {4.7}{\ignorespaces Cadenas de texto aleatorias.\relax }}{39}{figure.caption.120}
\contentsline {figure}{\numberline {4.8}{\ignorespaces Componentes: Label, TextBox y Button.\relax }}{39}{figure.caption.123}
\contentsline {figure}{\numberline {4.9}{\ignorespaces Componente indicador.\relax }}{40}{figure.caption.127}
\contentsline {figure}{\numberline {4.10}{\ignorespaces Componente de barra de progreso.\relax }}{40}{figure.caption.129}
\contentsline {figure}{\numberline {4.11}{\ignorespaces Componente terminal.\relax }}{41}{figure.caption.131}
\contentsline {figure}{\numberline {4.12}{\ignorespaces Componente de graficos X vs Y.\relax }}{41}{figure.caption.133}
\contentsline {figure}{\numberline {4.13}{\ignorespaces Ventana dise\IeC {\~n}ada en Qt Creator.\relax }}{42}{figure.caption.136}
\contentsline {figure}{\numberline {4.14}{\ignorespaces Ventana con todos los componentes disponible visualizada por la EDU-CIAA.\relax }}{42}{figure.caption.137}
\addvspace {10\p@ }
