\relax 
\providecommand\hyper@newdestlabel[2]{}
\catcode `"\active 
\catcode `<\active 
\catcode `>\active 
\@nameuse{es@quoting}
\bibstyle{biblatex}
\bibdata{memoria-blx,references}
\citation{biblatex-control}
\abx@aux@sortscheme{nty}
\abx@aux@refcontext{nty/global/}
\providecommand\HyperFirstAtBeginDocument{\AtBeginDocument}
\HyperFirstAtBeginDocument{\ifx\hyper@anchor\@undefined
\global\let\oldcontentsline\contentsline
\gdef\contentsline#1#2#3#4{\oldcontentsline{#1}{#2}{#3}}
\global\let\oldnewlabel\newlabel
\gdef\newlabel#1#2{\newlabelxx{#1}#2}
\gdef\newlabelxx#1#2#3#4#5#6{\oldnewlabel{#1}{{#2}{#3}}}
\AtEndDocument{\ifx\hyper@anchor\@undefined
\let\contentsline\oldcontentsline
\let\newlabel\oldnewlabel
\fi}
\fi}
\global\let\hyper@last\relax 
\gdef\HyperFirstAtBeginDocument#1{#1}
\providecommand\HyField@AuxAddToFields[1]{}
\providecommand\HyField@AuxAddToCoFields[2]{}
\@writefile{toc}{\boolfalse {citerequest}\boolfalse {citetracker}\boolfalse {pagetracker}\boolfalse {backtracker}\relax }
\@writefile{lof}{\boolfalse {citerequest}\boolfalse {citetracker}\boolfalse {pagetracker}\boolfalse {backtracker}\relax }
\@writefile{lot}{\boolfalse {citerequest}\boolfalse {citetracker}\boolfalse {pagetracker}\boolfalse {backtracker}\relax }
\select@language{spanish}
\@writefile{toc}{\defcounter {refsection}{0}\relax }\@writefile{toc}{\select@language{spanish}}
\@writefile{lof}{\defcounter {refsection}{0}\relax }\@writefile{lof}{\select@language{spanish}}
\@writefile{lot}{\defcounter {refsection}{0}\relax }\@writefile{lot}{\select@language{spanish}}
\@writefile{lol}{\defcounter {refsection}{0}\relax }\@writefile{lol}{\select@language{spanish}}
\@writefile{toc}{\contentsline {chapter}{Resumen}{\es@scroman  {iii}}{section*.1}}
\@input{Chapters/Chapter1.aux}
\@input{Chapters/Chapter2.aux}
\citation{HDMI}
\abx@aux@cite{HDMI}
\abx@aux@segm{0}{0}{HDMI}
\citation{TMDS}
\abx@aux@cite{TMDS}
\abx@aux@segm{0}{0}{TMDS}
\citation{DISPLAYL}
\abx@aux@cite{DISPLAYL}
\abx@aux@segm{0}{0}{DISPLAYL}
\citation{DISPLAYL}
\abx@aux@segm{0}{0}{DISPLAYL}
\citation{DISPLAYL}
\abx@aux@segm{0}{0}{DISPLAYL}
\citation{LIBDLO}
\abx@aux@cite{LIBDLO}
\abx@aux@segm{0}{0}{LIBDLO}
\citation{DISPLAYL}
\abx@aux@segm{0}{0}{DISPLAYL}
\citation{DISPLAYL}
\abx@aux@segm{0}{0}{DISPLAYL}
\citation{USBPAG}
\abx@aux@cite{USBPAG}
\abx@aux@segm{0}{0}{USBPAG}
\citation{USBHOSTCESE}
\abx@aux@cite{USBHOSTCESE}
\abx@aux@segm{0}{0}{USBHOSTCESE}
\citation{USBHOSTCESE}
\abx@aux@segm{0}{0}{USBHOSTCESE}
\citation{USBPAG}
\abx@aux@segm{0}{0}{USBPAG}
\citation{CIAA}
\abx@aux@cite{CIAA}
\abx@aux@segm{0}{0}{CIAA}
\citation{HISTGUI}
\abx@aux@cite{HISTGUI}
\abx@aux@segm{0}{0}{HISTGUI}
\@input{Chapters/Chapter3.aux}
\citation{DOTFACTORY}
\abx@aux@cite{DOTFACTORY}
\abx@aux@segm{0}{0}{DOTFACTORY}
\@input{Chapters/Chapter4.aux}
\@input{Chapters/Chapter5.aux}
\abx@aux@refcontextdefaultsdone
\abx@aux@defaultrefcontext{0}{TMDS}{nty/global/}
\abx@aux@defaultrefcontext{0}{DISPLAYL}{nty/global/}
\abx@aux@defaultrefcontext{0}{DOTFACTORY}{nty/global/}
\abx@aux@defaultrefcontext{0}{LIBDLO}{nty/global/}
\abx@aux@defaultrefcontext{0}{HDMI}{nty/global/}
\abx@aux@defaultrefcontext{0}{HISTGUI}{nty/global/}
\abx@aux@defaultrefcontext{0}{USBHOSTCESE}{nty/global/}
\abx@aux@defaultrefcontext{0}{CIAA}{nty/global/}
\abx@aux@defaultrefcontext{0}{USBPAG}{nty/global/}
\@writefile{toc}{\contentsline {chapter}{Bibliograf\'{\i }a}{45}{appendix*.141}}
