\BOOKMARK [0][-]{section*.1}{\376\377\000R\000e\000s\000u\000m\000e\000n}{}% 1
\BOOKMARK [0][-]{chapter.5}{\376\377\000I\000n\000t\000r\000o\000d\000u\000c\000c\000i\000\363\000n\000\040\000G\000e\000n\000e\000r\000a\000l}{}% 2
\BOOKMARK [1][-]{section.6}{\376\377\000C\000o\000n\000t\000e\000x\000t\000o\000\040\000y\000\040\000j\000u\000s\000t\000i\000f\000i\000c\000a\000c\000i\000\363\000n}{chapter.5}% 3
\BOOKMARK [1][-]{section.12}{\376\377\000O\000b\000j\000e\000t\000i\000v\000o\000s}{chapter.5}% 4
\BOOKMARK [1][-]{section.13}{\376\377\000A\000l\000c\000a\000n\000c\000e\000\040\000d\000e\000l\000\040\000p\000r\000o\000y\000e\000c\000t\000o}{chapter.5}% 5
\BOOKMARK [1][-]{section.14}{\376\377\000R\000e\000q\000u\000e\000r\000i\000m\000i\000e\000n\000t\000o\000s}{chapter.5}% 6
\BOOKMARK [0][-]{chapter.27}{\376\377\000I\000n\000t\000r\000o\000d\000u\000c\000c\000i\000\363\000n\000\040\000E\000s\000p\000e\000c\000\355\000f\000i\000c\000a}{}% 7
\BOOKMARK [1][-]{section.28}{\376\377\000R\000e\000s\000u\000m\000e\000n\000\040\000d\000e\000l\000\040\000t\000r\000a\000b\000a\000j\000o\000\040\000d\000e\000s\000a\000r\000r\000o\000l\000l\000a\000d\000o}{chapter.27}% 8
\BOOKMARK [2][-]{subsection.29}{\376\377\000E\000s\000q\000u\000e\000m\000a\000\040\000g\000e\000n\000e\000r\000a\000l}{section.28}% 9
\BOOKMARK [3][-]{section*.31}{\376\377\000I\000D\000E\000\040\000p\000a\000r\000a\000\040\000d\000i\000s\000e\000\361\000o\000\040\000d\000e\000\040\000i\000n\000t\000e\000r\000f\000a\000z}{subsection.29}% 10
\BOOKMARK [3][-]{section*.33}{\376\377\000D\000i\000s\000e\000\361\000o\000\040\000d\000e\000\040\000A\000p\000l\000i\000c\000a\000c\000i\000\363\000n}{subsection.29}% 11
\BOOKMARK [3][-]{section*.37}{\376\377\000C\000o\000m\000p\000o\000n\000e\000n\000t\000e\000s\000\040\000H\000a\000r\000d\000w\000a\000r\000e}{subsection.29}% 12
\BOOKMARK [2][-]{subsection.38}{\376\377\000E\000s\000q\000u\000e\000m\000a\000\040\000d\000e\000\040\000s\000o\000f\000t\000w\000a\000r\000e}{section.28}% 13
\BOOKMARK [3][-]{section*.39}{\376\377\000B\000i\000b\000l\000i\000o\000t\000e\000c\000a\000s\000\040\000d\000e\000\040\000c\000o\000m\000p\000o\000n\000e\000n\000t\000e\000s\000\040\000v\000i\000s\000u\000a\000l\000e\000s}{subsection.38}% 14
\BOOKMARK [3][-]{section*.41}{\376\377\000C\000o\000n\000v\000e\000r\000s\000o\000r\000\040\000d\000e\000\040\000p\000a\000n\000t\000a\000l\000l\000a\000s}{subsection.38}% 15
\BOOKMARK [1][-]{section.43}{\376\377\000H\000e\000r\000r\000a\000m\000i\000e\000n\000t\000a\000s\000\040\000u\000t\000i\000l\000i\000z\000a\000d\000a\000s}{chapter.27}% 16
\BOOKMARK [2][-]{subsection.44}{\376\377\000H\000D\000M\000I\000\040\000y\000\040\000D\000i\000s\000p\000l\000a\000y\000\040\000L\000i\000n\000k}{section.43}% 17
\BOOKMARK [3][-]{section*.45}{\376\377\000H\000D\000M\000I}{subsection.44}% 18
\BOOKMARK [3][-]{section*.47}{\376\377\000D\000i\000s\000p\000l\000a\000y\000\040\000L\000i\000n\000k}{subsection.44}% 19
\BOOKMARK [2][-]{subsection.50}{\376\377\000U\000S\000B\000-\000O\000T\000G}{section.43}% 20
\BOOKMARK [2][-]{subsection.52}{\376\377\000P\000r\000o\000y\000e\000c\000t\000o\000\040\000C\000I\000A\000A}{section.43}% 21
\BOOKMARK [3][-]{section*.53}{\376\377\000E\000D\000U\000-\000C\000I\000A\000A}{subsection.52}% 22
\BOOKMARK [2][-]{subsection.56}{\376\377\000I\000D\000E\000\040\000p\000a\000r\000a\000\040\000d\000i\000s\000e\000\361\000o\000\040\000d\000e\000\040\000i\000n\000t\000e\000r\000f\000a\000c\000e\000s\000\040\000g\000r\000\341\000f\000i\000c\000a\000s\000\040\000d\000e\000\040\000u\000s\000u\000a\000r\000i\000o}{section.43}% 23
\BOOKMARK [0][-]{chapter.58}{\376\377\000D\000i\000s\000e\000\361\000o\000\040\000e\000\040\000I\000m\000p\000l\000e\000m\000e\000n\000t\000a\000c\000i\000\363\000n}{}% 24
\BOOKMARK [1][-]{section.59}{\376\377\000P\000l\000a\000n\000i\000f\000i\000c\000a\000c\000i\000o\000n\000\040\000d\000e\000\040\000t\000a\000r\000e\000a\000s}{chapter.58}% 25
\BOOKMARK [1][-]{section.61}{\376\377\000U\000S\000B\000-\000H\000D\000M\000I}{chapter.58}% 26
\BOOKMARK [1][-]{section.63}{\376\377\000I\000m\000p\000l\000e\000m\000e\000n\000t\000a\000c\000i\000o\000n\000\040\000d\000e\000\040\000b\000i\000b\000l\000i\000o\000t\000e\000c\000a\000\040\000l\000i\000b\000d\000l\000o\000\040\000e\000n\000\040\000E\000D\000U\000-\000C\000I\000A\000A}{chapter.58}% 27
\BOOKMARK [1][-]{section.68}{\376\377\000D\000e\000s\000a\000r\000r\000o\000l\000l\000o\000\040\000d\000e\000\040\000f\000o\000r\000m\000a\000s\000\040\000b\000\341\000s\000i\000c\000a\000s}{chapter.58}% 28
\BOOKMARK [2][-]{subsection.69}{\376\377\000D\000i\000s\000e\000\361\000o\000\040\000e\000\040\000i\000m\000p\000l\000e\000m\000e\000n\000t\000a\000c\000i\000\363\000n}{section.68}% 29
\BOOKMARK [2][-]{subsection.70}{\376\377\000I\000n\000t\000r\000u\000c\000c\000i\000o\000n\000e\000s\000\040\000d\000e\000\040\000u\000s\000o}{section.68}% 30
\BOOKMARK [1][-]{section.73}{\376\377\000D\000e\000s\000a\000r\000r\000o\000l\000l\000o\000\040\000d\000e\000\040\000o\000b\000j\000e\000t\000o\000s\000\040\000v\000i\000s\000u\000a\000l\000e\000s}{chapter.58}% 31
\BOOKMARK [2][-]{subsection.75}{\376\377\000D\000i\000s\000e\000\361\000o\000\040\000e\000\040\000i\000m\000p\000l\000e\000m\000e\000n\000t\000a\000c\000i\000\363\000n}{section.73}% 32
\BOOKMARK [2][-]{subsection.78}{\376\377\000I\000n\000s\000t\000r\000u\000c\000c\000i\000o\000n\000e\000s\000\040\000d\000e\000\040\000u\000s\000o}{section.73}% 33
\BOOKMARK [3][-]{section*.84}{\376\377\000p\000a\000i\000n\000t\000W\000i\000n\000d\000o\000w\000s\000\137\000t}{subsection.78}% 34
\BOOKMARK [3][-]{section*.85}{\376\377\000p\000a\000i\000n\000t\000L\000a\000b\000e\000l\000\137\000t}{subsection.78}% 35
\BOOKMARK [3][-]{section*.86}{\376\377\000p\000a\000i\000n\000t\000T\000e\000x\000t\000B\000o\000x\000\137\000t}{subsection.78}% 36
\BOOKMARK [3][-]{section*.87}{\376\377\000p\000a\000i\000n\000t\000B\000u\000t\000t\000o\000n\000\137\000t}{subsection.78}% 37
\BOOKMARK [3][-]{section*.88}{\376\377\000p\000a\000i\000n\000t\000P\000r\000o\000g\000r\000e\000s\000s\000B\000a\000r\000\137\000t}{subsection.78}% 38
\BOOKMARK [3][-]{section*.89}{\376\377\000p\000a\000i\000n\000t\000T\000e\000r\000m\000i\000n\000a\000l\000\137\000t}{subsection.78}% 39
\BOOKMARK [3][-]{section*.90}{\376\377\000p\000a\000i\000n\000t\000I\000n\000d\000i\000c\000a\000t\000o\000r\000\137\000t}{subsection.78}% 40
\BOOKMARK [3][-]{section*.91}{\376\377\000p\000a\000i\000n\000t\000G\000r\000a\000p\000h\000i\000c\000X\000Y\000\137\000t}{subsection.78}% 41
\BOOKMARK [1][-]{section.92}{\376\377\000C\000o\000n\000v\000e\000r\000s\000o\000r\000\040\000d\000e\000\040\000p\000a\000n\000t\000a\000l\000l\000a\000s}{chapter.58}% 42
\BOOKMARK [2][-]{subsection.93}{\376\377\000D\000i\000s\000e\000\361\000o\000\040\000e\000\040\000i\000m\000p\000l\000e\000m\000e\000n\000t\000a\000c\000i\000\363\000n}{section.92}% 43
\BOOKMARK [2][-]{subsection.99}{\376\377\000I\000n\000s\000t\000r\000u\000c\000c\000i\000o\000n\000e\000s\000\040\000d\000e\000\040\000u\000s\000o}{section.92}% 44
\BOOKMARK [3][-]{section*.100}{\376\377\000P\000l\000u\000g\000-\000i\000n\000\040\000d\000e\000\040\000e\000c\000l\000i\000p\000s\000e}{subsection.99}% 45
\BOOKMARK [3][-]{section*.103}{\376\377\000P\000a\000n\000t\000a\000l\000l\000a\000s\000\040\000Q\000t\000\040\000C\000r\000e\000a\000t\000o\000r}{subsection.99}% 46
\BOOKMARK [0][-]{chapter.105}{\376\377\000E\000n\000s\000a\000y\000o\000s\000\040\000y\000\040\000R\000e\000s\000u\000l\000t\000a\000d\000o\000s}{}% 47
\BOOKMARK [1][-]{section.106}{\376\377\000E\000n\000s\000a\000y\000o\000s\000\040\000d\000e\000\040\000f\000o\000r\000m\000a\000s\000\040\000b\000\341\000s\000i\000c\000a\000s}{chapter.105}% 48
\BOOKMARK [2][-]{section*.107}{\376\377\000D\000e\000t\000e\000c\000c\000i\000\363\000n\000\040\000y\000\040\000p\000a\000n\000t\000a\000l\000l\000a\000\040\000c\000o\000m\000p\000l\000e\000t\000a}{section.106}% 49
\BOOKMARK [3][-]{section*.109}{\376\377\000B\000a\000r\000r\000a\000s\000\040\000h\000o\000r\000i\000z\000o\000n\000t\000a\000l\000e\000s\000\040\000y\000\040\000v\000e\000r\000t\000i\000c\000a\000l\000e\000s}{section*.107}% 50
\BOOKMARK [3][-]{section*.111}{\376\377\000P\000\355\000x\000e\000l\000e\000s}{section*.107}% 51
\BOOKMARK [3][-]{section*.113}{\376\377\000L\000\355\000n\000e\000a\000s}{section*.107}% 52
\BOOKMARK [3][-]{section*.115}{\376\377\000C\000\355\000r\000c\000u\000l\000o\000s}{section*.107}% 53
\BOOKMARK [3][-]{section*.117}{\376\377\000R\000e\000c\000t\000\341\000n\000g\000u\000l\000o\000s\000\040\000y\000\040\000c\000o\000p\000i\000a\000\040\000d\000e\000\040\000b\000l\000o\000q\000u\000e\000s\000\040\000d\000e\000\040\000p\000a\000n\000t\000a\000l\000l\000a}{section*.107}% 54
\BOOKMARK [3][-]{section*.119}{\376\377\000F\000u\000e\000n\000t\000e\000s\000\040\000t\000i\000p\000o\000g\000r\000\341\000f\000i\000c\000a\000s}{section*.107}% 55
\BOOKMARK [1][-]{section.121}{\376\377\000E\000n\000s\000a\000y\000o\000s\000\040\000d\000e\000\040\000c\000o\000m\000p\000o\000n\000e\000n\000t\000e\000s\000\040\000d\000e\000\040\000v\000e\000n\000t\000a\000n\000a}{chapter.105}% 56
\BOOKMARK [2][-]{section*.122}{\376\377\000E\000t\000i\000q\000u\000e\000t\000a\000\040\000d\000e\000\040\000t\000e\000x\000t\000o\000\040\000\050\000l\000a\000b\000e\000l\000\051}{section.121}% 57
\BOOKMARK [3][-]{section*.124}{\376\377\000C\000a\000j\000a\000\040\000d\000e\000\040\000t\000e\000x\000t\000o\000\040\000\050\000T\000e\000x\000t\000B\000o\000x\000\051}{section*.122}% 58
\BOOKMARK [3][-]{section*.125}{\376\377\000B\000o\000t\000\363\000n\000\040\000\050\000b\000u\000t\000t\000o\000n\000\051}{section*.122}% 59
\BOOKMARK [3][-]{section*.126}{\376\377\000I\000n\000d\000i\000c\000a\000d\000o\000r\000\040\000d\000e\000\040\000e\000s\000t\000a\000d\000o\000\040\000\050\000s\000t\000a\000t\000u\000s\000\040\000i\000n\000d\000i\000c\000a\000t\000o\000r\000\051}{section*.122}% 60
\BOOKMARK [3][-]{section*.128}{\376\377\000B\000a\000r\000r\000a\000\040\000d\000e\000\040\000p\000r\000o\000g\000r\000e\000s\000o\000\040\000\050\000p\000r\000o\000g\000r\000e\000s\000s\000\040\000b\000a\000r\000\051}{section*.122}% 61
\BOOKMARK [3][-]{section*.130}{\376\377\000T\000e\000r\000m\000i\000n\000a\000l}{section*.122}% 62
\BOOKMARK [3][-]{section*.132}{\376\377\000G\000r\000\341\000f\000i\000c\000a\000\040\000X\000\040\000v\000s\000\040\000Y}{section*.122}% 63
\BOOKMARK [1][-]{section.134}{\376\377\000E\000n\000s\000a\000y\000o\000s\000\040\000d\000e\000\040\000g\000e\000n\000e\000r\000a\000c\000i\000\363\000n\000\040\000d\000e\000\040\000i\000n\000t\000e\000r\000f\000a\000z}{chapter.105}% 64
\BOOKMARK [2][-]{section*.135}{\376\377\000D\000i\000s\000e\000\361\000o\000\040\000d\000e\000\040\000p\000a\000n\000t\000a\000l\000l\000a}{section.134}% 65
\BOOKMARK [0][-]{chapter.138}{\376\377\000C\000o\000n\000c\000l\000u\000s\000i\000o\000n\000e\000s}{}% 66
\BOOKMARK [1][-]{section.139}{\376\377\000C\000o\000n\000c\000l\000u\000s\000i\000o\000n\000e\000s\000\040\000g\000e\000n\000e\000r\000a\000l\000e\000s\000\040}{chapter.138}% 67
\BOOKMARK [1][-]{section.140}{\376\377\000P\000r\000\363\000x\000i\000m\000o\000s\000\040\000p\000a\000s\000o\000s}{chapter.138}% 68
\BOOKMARK [0][-]{appendix*.141}{\376\377\000B\000i\000b\000l\000i\000o\000g\000r\000a\000f\000\355\000a}{}% 69
